{
  "actions" : [
    {
      "type" : "@util.get-clipboard",
      "parameters" : {
        "mode" : 0
      }
    },
    {
      "type" : "@flow.set-variable",
      "parameters" : {
        "value" : {
          "value" : "$",
          "tokens" : [
            {
              "location" : 0,
              "value" : "@input"
            }
          ]
        },
        "name" : {
          "value" : "clip"
        }
      }
    },
    {
      "type" : "@ui.text-input",
      "parameters" : {
        "prompt" : {
          "value" : "Set file name."
        },
        "keyboardType" : 0,
        "initialText" : {
          "value" : "$.md",
          "tokens" : [
            {
              "location" : 0,
              "value" : "@date.format(MMddYYYY-HHmmss)"
            }
          ]
        },
        "singleLineText" : true
      }
    },
    {
      "type" : "@flow.set-variable",
      "parameters" : {
        "value" : {
          "value" : "$",
          "tokens" : [
            {
              "location" : 0,
              "value" : "@input"
            }
          ]
        },
        "name" : {
          "value" : "filename"
        }
      }
    },
    {
      "type" : "@editor.new",
      "parameters" : {
        "location" : 2,
        "openInEditor" : true,
        "filename" : {
          "value" : "$",
          "tokens" : [
            {
              "location" : 0,
              "value" : "filename"
            }
          ]
        },
        "text" : {
          "value" : "$",
          "tokens" : [
            {
              "location" : 0,
              "value" : "clip"
            }
          ]
        },
        "overwriteIfExists" : true
      }
    }
  ],
  "buildVersion" : 1,
  "name" : "Snippet",
  "clientMinVersion" : 1,
  "summary" : "",
  "icon" : {
    "glyph" : "scissors.badge.ellipsis",
    "color" : "#60C172"
  },
  "clientVersion" : 1164
}